430669009.9262963
7.185123000000000000e+08 7.978900000000000325e+00 1.339399999999999924e+00
2.109223100000000238e+09 6.568900000000000183e+00 1.415300000000000002e+00
9.530537100000000000e+09 8.342800000000000438e+00 1.193200000000000038e+00
8.781660200000000000e+09 7.623199999999999754e+00 1.265099999999999891e+00
2.098929400000000000e+09 1.402319999999999922e+01 1.402800000000000047e+00
2.621671900000000000e+09 6.320100000000000051e+00 1.968900000000000095e+00
8.511381799999999046e+09 6.275599999999999845e+00 1.651200000000000001e+00
3.675402000000000000e+08 8.069200000000000372e+00 1.834200000000000053e+00
5.408542000000000000e+08 8.195000000000000284e+00 1.897799999999999931e+00
8.169724000000000000e+08 6.601099999999999746e+00 1.424400000000000110e+00
5.120102500000000000e+09 8.064199999999999591e+00 1.278599999999999959e+00
1.198334770000000000e+10 1.260069999999999979e+01 1.452700000000000102e+00
5.297003900000000000e+09 7.725200000000000067e+00 1.615199999999999969e+00
1.656211300000000000e+09 5.906299999999999883e+00 1.193200000000000038e+00
2.144065000000000000e+08 1.208830000000000027e+01 1.419599999999999973e+00
6.509843000000000000e+08 5.715200000000000280e+00 1.860899999999999999e+00
7.723318400000000000e+09 8.307399999999999451e+00 1.615299999999999958e+00
2.400059300000000000e+09 1.040360000000000085e+01 1.193200000000000038e+00
2.283354500000000000e+09 6.124299999999999855e+00 1.513200000000000101e+00
5.018395500000000000e+09 8.933500000000000441e+00 1.312500000000000000e+00
6.642542000000000000e+08 8.365000000000000213e+00 1.883899999999999908e+00
4.704165000000000000e+09 6.494699999999999918e+00 1.224900000000000100e+00
2.177530000000000000e+07 6.410099999999999909e+00 1.193200000000000038e+00
1.367552200000000000e+09 1.078009999999999913e+01 1.193200000000000038e+00
2.123376000000000000e+08 7.705899999999999750e+00 1.193200000000000038e+00
7.683983900000000000e+09 7.982899999999999885e+00 1.854400000000000048e+00
1.576750000000000000e+07 5.732300000000000395e+00 1.507600000000000051e+00
1.041666110000000000e+10 8.113599999999999923e+00 1.193200000000000038e+00
1.084698140000000000e+10 5.708800000000000097e+00 1.885999999999999899e+00
9.980283200000000000e+09 6.652899999999999814e+00 1.193200000000000038e+00
1.339847270000000000e+10 6.557199999999999918e+00 1.207400000000000029e+00
9.859382800000000000e+09 6.580499999999999794e+00 1.292200000000000015e+00
1.606743300000000000e+09 9.306499999999999773e+00 1.267300000000000093e+00
1.645359700000000000e+09 5.809599999999999653e+00 1.193200000000000038e+00
4.209821299999999523e+09 6.572600000000000442e+00 1.542100000000000026e+00
4.174703099999999523e+09 6.461500000000000021e+00 1.704299999999999926e+00
2.646689000000000000e+09 7.704799999999999649e+00 1.898500000000000076e+00
1.160579490000000000e+10 6.216300000000000381e+00 1.244299999999999962e+00
1.164925200000000000e+10 6.307299999999999685e+00 1.383399999999999963e+00
1.922430000000000000e+07 5.955199999999999605e+00 1.193200000000000038e+00
1.386211700000000000e+09 1.653699999999999903e+01 1.326799999999999979e+00
2.882483400000000000e+09 8.378399999999999181e+00 1.928600000000000092e+00
1.127760250000000000e+10 6.492899999999999672e+00 1.980499999999999927e+00
2.284307600000000000e+09 7.762400000000000411e+00 1.661299999999999999e+00
4.049164100000000000e+09 8.479699999999999349e+00 1.941799999999999971e+00
1.282796480000000000e+10 1.175929999999999964e+01 1.193200000000000038e+00
2.755152000000000000e+08 7.530899999999999928e+00 1.961100000000000065e+00
1.772530000000000000e+07 7.969100000000000072e+00 1.991999999999999993e+00
6.388135000000000000e+08 6.721799999999999997e+00 1.340799999999999992e+00
4.992574700000000000e+09 8.569499999999999673e+00 1.193200000000000038e+00
2.531686300000000000e+09 6.267800000000000260e+00 1.193200000000000038e+00
1.221491110000000000e+10 7.592600000000000016e+00 1.670900000000000052e+00
4.939612800000000000e+09 6.314600000000000435e+00 1.541299999999999892e+00
1.156948200000000000e+09 6.330400000000000027e+00 1.193200000000000038e+00
4.342233000000000000e+08 7.836599999999999788e+00 1.193200000000000038e+00
1.087743950000000000e+10 1.338809999999999967e+01 1.429999999999999938e+00
7.076896500000000000e+09 7.416500000000000092e+00 1.195799999999999974e+00
5.021730000000000000e+09 1.431339999999999968e+01 1.564000000000000057e+00
8.663680700000000000e+09 7.620099999999999874e+00 1.897699999999999942e+00
4.709636700000000000e+09 5.762599999999999945e+00 1.873099999999999987e+00
1.636796000000000000e+08 1.460800000000000054e+01 1.615599999999999925e+00
2.819469200000000000e+09 8.303800000000000736e+00 1.888700000000000045e+00
1.351700200000000000e+09 7.669400000000000439e+00 1.995600000000000041e+00
4.822580100000000000e+09 1.072729999999999961e+01 1.193200000000000038e+00
1.412454000000000000e+08 7.172799999999999621e+00 1.193200000000000038e+00
1.156587890000000000e+10 7.090399999999999814e+00 1.261300000000000088e+00
3.830350000000000000e+07 8.029199999999999449e+00 1.193200000000000038e+00
5.020116000000000000e+08 7.739700000000000024e+00 1.747600000000000042e+00
1.306507600000000000e+09 7.679899999999999949e+00 1.290599999999999969e+00
7.621520000000000000e+07 8.174799999999999400e+00 1.967999999999999972e+00
2.045729500000000000e+09 5.842699999999999783e+00 1.193200000000000038e+00
1.186430960000000000e+10 8.884499999999999176e+00 1.730799999999999894e+00
1.202137790000000000e+10 6.202799999999999869e+00 1.204900000000000082e+00
1.523640000000000000e+07 7.252299999999999969e+00 1.248699999999999921e+00
3.030618700000000000e+09 5.847699999999999676e+00 1.203000000000000069e+00
1.362322950000000000e+10 8.129300000000000637e+00 1.246499999999999941e+00
1.028659180000000000e+10 8.205000000000000071e+00 1.349399999999999933e+00
3.891581500000000000e+09 6.213599999999999568e+00 1.470900000000000096e+00
2.604580000000000000e+07 7.611399999999999721e+00 1.219899999999999984e+00
3.747687000000000000e+09 7.834200000000000053e+00 1.830999999999999961e+00
1.089853900000000000e+09 8.104400000000000048e+00 1.516499999999999959e+00
1.223363960000000000e+10 6.323699999999999655e+00 1.388900000000000023e+00
6.435280000000000000e+07 1.028689999999999927e+01 1.243800000000000017e+00
3.046590000000000000e+07 5.954500000000000348e+00 1.193200000000000038e+00
6.418145000000000000e+08 6.454299999999999926e+00 1.376500000000000057e+00
1.188175980000000000e+10 7.721700000000000230e+00 1.880300000000000082e+00
9.863987000000000000e+08 8.246100000000000207e+00 1.695999999999999952e+00
2.742091100000000000e+09 7.734099999999999753e+00 1.835700000000000109e+00
6.103933100000000000e+09 7.648200000000000109e+00 1.440900000000000070e+00
3.362214400000000000e+09 1.476870000000000083e+01 1.579299999999999926e+00
9.317964800000000000e+09 6.713799999999999990e+00 1.648400000000000087e+00
1.022702830000000000e+10 7.573599999999999888e+00 1.781099999999999905e+00
9.342642600000000000e+09 6.482000000000000206e+00 1.207500000000000018e+00
1.031420000000000000e+07 1.014070000000000071e+01 1.432900000000000063e+00
1.102142700000000000e+09 8.860300000000000509e+00 1.193200000000000038e+00
1.002846580000000000e+10 8.143900000000000361e+00 1.204499999999999904e+00
2.301710000000000000e+08 6.949900000000000411e+00 1.528699999999999948e+00
1.964596600000000000e+09 6.489200000000000301e+00 1.234199999999999964e+00
1.340419430000000000e+10 8.523400000000000531e+00 1.903000000000000025e+00
8.654168900000000000e+09 7.642800000000000260e+00 1.770799999999999930e+00
2.778971200000000000e+09 6.550399999999999778e+00 1.323299999999999921e+00
1.257932810000000000e+10 7.559599999999999653e+00 1.803700000000000081e+00
6.468742200000000000e+09 5.854300000000000281e+00 1.452700000000000102e+00
4.409737300000000000e+09 5.861399999999999721e+00 1.661000000000000032e+00
1.181784180000000000e+10 6.780300000000000438e+00 1.193200000000000038e+00
3.788066200000000000e+09 7.892599999999999838e+00 1.860700000000000021e+00
1.125658300000000000e+10 7.796999999999999709e+00 1.951500000000000012e+00
1.147264800000000000e+09 6.158100000000000129e+00 1.646300000000000097e+00
2.786939500000000000e+09 1.294819999999999993e+01 1.414900000000000047e+00
2.578320000000000000e+07 5.961400000000000254e+00 1.413300000000000001e+00
3.163338100000000000e+09 6.869200000000000195e+00 1.669499999999999984e+00
8.228399400000000000e+09 8.672900000000000276e+00 1.660900000000000043e+00
1.004022850000000000e+10 1.699660000000000082e+01 1.305199999999999916e+00
5.587054700000000000e+09 9.256000000000000227e+00 1.460599999999999898e+00
2.348173000000000000e+08 7.966899999999999871e+00 1.726599999999999913e+00
2.445900000000000000e+08 7.811799999999999855e+00 1.612500000000000044e+00
5.274092800000000000e+09 6.517400000000000304e+00 1.193200000000000038e+00
2.643450200000000000e+09 6.941699999999999982e+00 1.193200000000000038e+00
1.323447750000000000e+10 6.003400000000000070e+00 1.352999999999999980e+00
1.387947500000000000e+09 7.484799999999999898e+00 1.643899999999999917e+00
3.969670000000000000e+07 1.066549999999999976e+01 1.193200000000000038e+00
2.865474000000000000e+08 6.858900000000000219e+00 1.447300000000000031e+00
9.958300000000000000e+06 1.187429999999999986e+01 1.424800000000000066e+00
6.298065900000000000e+09 7.898399999999999643e+00 1.829299999999999926e+00
6.548244600000000000e+09 8.349899999999999878e+00 1.618200000000000083e+00
3.329469000000000000e+08 6.296199999999999797e+00 1.193200000000000038e+00
4.262408700000000000e+09 6.122099999999999653e+00 1.532100000000000017e+00
5.548225600000000000e+09 6.130799999999999805e+00 1.963899999999999979e+00
1.068219630000000000e+10 6.736100000000000421e+00 1.193200000000000038e+00
4.517635300000000000e+09 7.820400000000000240e+00 1.808499999999999996e+00
5.765270000000000000e+07 5.945800000000000196e+00 1.193200000000000038e+00
6.254454100000000000e+09 7.551400000000000112e+00 1.565199999999999925e+00
2.963951900000000000e+09 6.671299999999999564e+00 1.297199999999999909e+00
3.882325200000000000e+09 1.075200000000000067e+01 1.193200000000000038e+00
5.484004000000000000e+08 7.867700000000000138e+00 1.579199999999999937e+00
8.458809600000000954e+09 7.519599999999999618e+00 1.193200000000000038e+00
6.701675800000000000e+09 7.759000000000000341e+00 1.798000000000000043e+00
1.303273000000000149e+08 6.761300000000000310e+00 1.193200000000000038e+00
6.556039600000000000e+09 6.658100000000000129e+00 1.396700000000000053e+00
1.004274000000000000e+09 1.205059999999999931e+01 1.531500000000000083e+00
1.125730000000000000e+07 8.483599999999999142e+00 1.947799999999999976e+00
3.122275400000000000e+09 8.484500000000000597e+00 1.893199999999999994e+00
5.566003900000000000e+09 6.016300000000000203e+00 1.228299999999999947e+00
1.784988300000000000e+09 8.461100000000000065e+00 1.906400000000000095e+00
2.455950000000000000e+08 1.015869999999999962e+01 1.443500000000000005e+00
3.342095700000000000e+09 7.983900000000000219e+00 1.820500000000000007e+00
3.877539100000000000e+09 6.219699999999999562e+00 1.579599999999999893e+00
2.338435100000000000e+09 7.627399999999999736e+00 1.230599999999999916e+00
3.872786600000000000e+09 5.732700000000000351e+00 1.193200000000000038e+00
6.704748000000000000e+08 1.077190000000000047e+01 1.437400000000000011e+00
1.641726800000000000e+09 6.024899999999999700e+00 1.916299999999999892e+00
9.274398000000000000e+08 5.813299999999999912e+00 1.193200000000000038e+00
5.196103000000000000e+09 7.377200000000000202e+00 1.551399999999999890e+00
1.099434570000000000e+10 6.944099999999999717e+00 1.193200000000000038e+00
8.365346700000000000e+09 8.577299999999999258e+00 1.952700000000000102e+00
6.300935500000000000e+09 7.065500000000000114e+00 1.252699999999999925e+00
1.093567870000000000e+10 9.474500000000000810e+00 1.193200000000000038e+00
9.971089800000000000e+09 9.723300000000000054e+00 1.450599999999999890e+00
1.304074020000000000e+10 6.476899999999999658e+00 1.541700000000000070e+00
1.329816800000000000e+09 7.741900000000000226e+00 1.193200000000000038e+00
1.114850590000000000e+10 8.105600000000000804e+00 1.832600000000000007e+00
1.389053520000000000e+10 8.079200000000000159e+00 1.756399999999999961e+00
1.487984100000000000e+09 7.716300000000000381e+00 1.657899999999999929e+00
6.543522000000000000e+08 8.323199999999999932e+00 1.905100000000000016e+00
2.044654000000000000e+08 7.511300000000000310e+00 1.227500000000000036e+00
4.561910000000000000e+07 6.828199999999999825e+00 1.193200000000000038e+00
2.013390000000000000e+07 6.484200000000000408e+00 1.193200000000000038e+00
3.434810000000000000e+07 9.061700000000000088e+00 1.502399999999999958e+00
1.247818950000000000e+10 6.752900000000000347e+00 1.193200000000000038e+00
1.551418300000000000e+09 8.280099999999999127e+00 1.907599999999999962e+00
1.301456250000000000e+10 8.461299999999999599e+00 1.905000000000000027e+00
8.848066000000000000e+08 5.983999999999999986e+00 1.193200000000000038e+00
4.770150000000000000e+07 6.621900000000000119e+00 1.485899999999999999e+00
8.257563500000000000e+09 6.652300000000000324e+00 1.504999999999999893e+00
4.514612300000000000e+09 1.457760000000000034e+01 1.236099999999999977e+00
1.304280080000000000e+10 5.845900000000000318e+00 1.361799999999999899e+00
3.038665300000000000e+09 8.114100000000000534e+00 1.361399999999999944e+00
1.279732710000000000e+10 5.870300000000000296e+00 1.193200000000000038e+00
1.054441800000000000e+10 6.891899999999999693e+00 1.193200000000000038e+00
2.129099100000000000e+09 7.546400000000000219e+00 1.248799999999999910e+00
1.279344530000000000e+10 5.776500000000000412e+00 1.418900000000000050e+00
2.219144000000000000e+08 6.434300000000000352e+00 1.566599999999999993e+00
2.123121600000000000e+09 6.360100000000000087e+00 1.229300000000000059e+00
1.192261620000000000e+10 6.869600000000000151e+00 1.278799999999999937e+00
1.372290000000000000e+07 6.691600000000000215e+00 1.543400000000000105e+00
4.122455000000000000e+08 6.470699999999999896e+00 1.419999999999999929e+00
5.798938500000000000e+09 8.127100000000000435e+00 1.829499999999999904e+00
3.248955600000000000e+09 7.151799999999999713e+00 1.274899999999999922e+00
1.765364500000000000e+09 7.062899999999999956e+00 1.352000000000000091e+00
5.250049800000000000e+09 6.201299999999999812e+00 1.193200000000000038e+00
3.272130400000000000e+09 7.610800000000000232e+00 1.332300000000000040e+00
1.721359000000000000e+08 6.418000000000000149e+00 1.193200000000000038e+00
9.217507000000000000e+08 1.054599999999999937e+01 1.193200000000000038e+00
1.144547750000000000e+10 7.926999999999999602e+00 1.842700000000000005e+00
4.802647000000000000e+09 7.943500000000000227e+00 1.224099999999999966e+00
2.626554400000000000e+09 5.719800000000000217e+00 1.193200000000000038e+00
7.035343800000000000e+09 6.562500000000000000e+00 1.567800000000000082e+00
2.459423000000000000e+08 8.601200000000000401e+00 1.945799999999999974e+00
1.358041300000000000e+09 7.277000000000000135e+00 1.193200000000000038e+00
4.757752400000000000e+09 6.302100000000000257e+00 1.276399999999999979e+00
1.681720000000000000e+07 6.636700000000000266e+00 1.193200000000000038e+00
1.258981540000000000e+10 1.053810000000000002e+01 1.193200000000000038e+00
2.611085700000000000e+09 7.945299999999999585e+00 1.193200000000000038e+00
6.651743000000000000e+08 9.019199999999999662e+00 1.193200000000000038e+00
5.477015000000000000e+08 1.081310000000000038e+01 1.424299999999999899e+00
1.350762990000000000e+10 6.446100000000000385e+00 1.193200000000000038e+00
9.074375000000000000e+09 7.089000000000000412e+00 1.193200000000000038e+00
3.093711000000000000e+08 8.603500000000000369e+00 1.193200000000000038e+00
1.203497400000000000e+09 5.989300000000000068e+00 1.193200000000000038e+00
2.971689000000000000e+08 8.213100000000000733e+00 1.997500000000000053e+00
8.861141600000000000e+09 6.344400000000000261e+00 1.552899999999999947e+00
4.346240200000000000e+09 6.003400000000000070e+00 1.250699999999999923e+00
1.512610200000000000e+09 6.028599999999999959e+00 1.625799999999999912e+00
5.678067900000000000e+09 1.300140000000000029e+01 1.193200000000000038e+00
1.013687110000000000e+10 9.475099999999999412e+00 1.242499999999999938e+00
1.739819000000000000e+09 7.762599999999999945e+00 1.832699999999999996e+00
2.822990000000000000e+07 6.553899999999999615e+00 1.193200000000000038e+00
1.184970000000000000e+07 5.813100000000000378e+00 1.673100000000000032e+00
2.278890000000000000e+07 6.446500000000000341e+00 1.193200000000000038e+00
