430491389.7510028
8.454839800000000000e+09 6.279200000000000337e+00 5.948699999999999655e+00
1.658297500000000000e+09 6.588199999999999612e+00 5.972999999999999865e+00
1.081868300000000000e+09 6.336999999999999744e+00 8.526799999999999713e+00
1.857661000000000000e+08 6.355500000000000149e+00 8.114000000000000767e+00
7.325220000000000000e+07 6.135699999999999932e+00 7.675900000000000389e+00
8.966390000000000000e+07 9.841100000000000847e+00 5.973600000000000243e+00
9.621513700000000000e+09 9.054199999999999804e+00 6.892000000000000348e+00
4.256108900000000000e+09 8.672000000000000597e+00 6.009400000000000297e+00
1.406463700000000000e+09 6.108799999999999564e+00 8.662100000000000577e+00
1.338762500000000000e+09 1.316050000000000075e+01 5.744699999999999918e+00
5.596470700000000000e+09 1.003669999999999973e+01 6.062800000000000189e+00
3.112102100000000000e+09 6.197000000000000064e+00 8.626699999999999591e+00
1.455617900000000000e+09 6.145599999999999952e+00 5.797399999999999665e+00
6.532291000000000000e+08 8.388099999999999667e+00 7.038499999999999979e+00
5.002408700000000000e+09 6.236200000000000188e+00 5.958499999999999908e+00
4.564554000000000000e+08 6.169500000000000206e+00 8.561099999999999710e+00
1.720978300000000000e+09 1.066000000000000014e+01 6.242300000000000182e+00
3.588774900000000000e+09 6.145199999999999996e+00 5.731700000000000017e+00
3.827106400000000000e+09 6.429899999999999949e+00 5.960700000000000109e+00
1.003898000000000000e+08 6.142400000000000304e+00 7.826699999999999768e+00
5.302042500000000000e+09 6.074699999999999989e+00 5.703000000000000291e+00
1.282866500000000000e+09 9.210900000000000531e+00 5.765299999999999869e+00
3.148497000000000000e+08 6.296100000000000030e+00 8.066399999999999793e+00
7.520314000000000000e+09 6.497099999999999653e+00 6.087299999999999933e+00
4.499633300000000000e+09 6.070899999999999963e+00 5.707499999999999574e+00
7.794689000000000000e+08 6.066699999999999982e+00 7.807500000000000107e+00
2.747558100000000000e+09 8.149399999999999977e+00 6.715499999999999581e+00
1.201216000000000000e+08 6.556199999999999584e+00 6.243500000000000050e+00
1.018233790000000000e+10 7.918599999999999639e+00 7.543000000000000149e+00
1.504287100000000000e+09 7.001199999999999868e+00 6.354599999999999582e+00
5.179135000000000000e+08 6.097500000000000142e+00 8.038399999999999324e+00
4.678133800000000000e+09 8.444100000000000605e+00 7.449699999999999989e+00
5.961867700000000000e+09 1.305489999999999995e+01 7.198599999999999888e+00
6.647051800000000000e+09 8.450200000000000600e+00 6.820199999999999818e+00
3.924919000000000000e+08 6.202300000000000146e+00 8.171900000000000830e+00
9.966230000000000000e+07 6.345399999999999707e+00 8.410000000000000142e+00
4.440048300000000000e+09 9.706400000000000361e+00 7.269599999999999618e+00
1.424697300000000000e+09 6.159500000000000419e+00 8.186400000000000787e+00
2.515290500000000000e+09 6.095699999999999896e+00 5.800600000000000200e+00
1.435812700000000000e+09 6.262500000000000178e+00 8.253399999999999181e+00
1.167616000000000000e+08 8.085499999999999687e+00 6.587200000000000166e+00
5.596460900000000000e+09 1.257959999999999923e+01 1.040169999999999995e+01
7.346418000000000000e+08 6.450400000000000134e+00 8.551800000000000068e+00
3.653289300000000000e+09 6.108600000000000030e+00 5.906200000000000117e+00
1.367837200000000000e+09 6.198599999999999888e+00 8.569300000000000139e+00
1.203570000000000000e+08 8.916600000000000747e+00 5.923399999999999999e+00
4.047358400000000000e+09 6.181700000000000195e+00 5.730999999999999872e+00
3.424250000000000000e+09 9.785600000000000520e+00 5.921999999999999709e+00
