7.064260730564699, -1.0145402735451727
7.115133460885549, -1.0408674844367867
7.161491657522298, -1.0644436876691228
7.211182155820039, -1.0901814223301118
7.2596965476491935, -1.115143001429142
7.308210939478348, -1.140512802600979
7.357901437776089, -1.1656699547584195
7.4042596344128375, -1.189705785806065
7.455132364733688, -1.2152894811140904
7.5009713305428525, -1.2393185529291577
7.550782898624124, -1.2624351283461843
7.597827157367547, -1.28281421456909
7.645974015925269, -1.3063363439408016
7.696326074111589, -1.3321166714692798
7.744840465940745, -1.3544590075182725
7.7933548577698994, -1.3813361741514665
7.952129231028953, -1.4613040403070185
8.000643622858107, -1.483038045423984
8.049158014687263, -1.5094727895611584
8.202261874615635, -1.5798100660265684
8.240569342449565, -1.6050471092638041
8.287319574575841, -1.6292586803584794
8.432495216791875, -1.6995209030076004
8.481377141892462, -1.7244348198147075
8.529891533721617, -1.747551395231734
8.706307504009454, -1.8285147120033303
8.754821895838608, -1.8478706962041904
8.970931459441209, -1.9478581803046313
9.019445851270364, -1.9720808119617077
9.214054718494133, -2.0730360952721925
9.257607411158943, -2.096512138967235
9.307959469345263, -2.1279886561319663
9.440323951814204, -2.1943981162115835
9.472736886037723, -2.2218406004785805
9.56368911960834, -2.2587595288200424
9.685416139106946, -2.3207097388251943
9.733930530936103, -2.340784659582086
9.78391505585099, -2.3662178083463266
11.101154300666835, -3.358798822923307
11.130470483964668, -3.423944327165468
11.15815022952906, -3.527578751092343
11.18495188655356, -3.6060300439802893
11.205043705391896, -3.6981921801823834
11.2286549337385, -3.7860130456422847
11.25515074139726, -3.8718706612760982
11.273649916059387, -3.9598517293263242
11.291536535269127, -4.040074163981569
11.305012755221668, -4.146329300108956
11.319977956120017, -4.244660535890965
11.33858079401255, -4.343327133597041
11.35607537773276, -4.436705931663189
11.366329556005741, -4.513811877297614
11.38047958695591, -4.5891942186246295
11.393710784727498, -4.6731438872443585
11.406941982499085, -4.760743541456249
11.420173180270673, -4.849965411486879
11.433404378042262, -4.9424317131549875
11.446635575813849, -5.037736892505888
11.457845340592556, -5.130659442373015
11.470304718494134, -5.228752805162372
11.479566556934245, -5.320002444966426
11.489670380687095, -5.414902070362642
11.504104414619736, -5.514447131967063
11.513526631214653, -5.606526313951154
11.522347429729045, -5.685001004182639
11.531168228243438, -5.7643881908121655
11.53998902675783, -5.846969114834834
11.562923102895247, -6.10036936457069
11.57174390140964, -6.1879690187825815
11.580564699924032, -6.278853660027419
11.589385498438425, -6.372293291186769
11.5960991061966, -6.460825719494435
11.606145015615768, -6.552967577998795
11.61496581413016, -6.651517188987173
11.622561501739774, -6.745930149637767
11.560606060606062, -6.025078369905957
11.553030303030305, -5.924764890282132
11.030303030303031, -3.1536050156739814
10.954545454545455, -3.0532915360501574
10.893939393939394, -2.9153605015673985
10.772727272727273, -2.764890282131662
10.643939393939394, -2.6645768025078373
10.522727272727273, -2.601880877742947
10.363636363636363, -2.514106583072101
10.204545454545455, -2.4890282131661445
10.030303030303031, -2.4263322884012544
9.863636363636363, -2.3887147335423204
