0.019354838709677358, -1.7688888888888887
0.05376344086021523, -1.7155555555555555
0.0795698924731183, -1.68
0.11397849462365595, -1.64
0.13978494623655924, -1.5911111111111111
0.17419354838709689, -1.5644444444444443
0.20000000000000018, -1.52
0.23440860215053783, -1.4933333333333334
0.27741935483870983, -1.4488888888888887
0.3032258064516131, -1.4133333333333333
0.33763440860215055, -1.391111111111111
0.40645161290322607, -1.3288888888888888
0.5096774193548388, -1.2355555555555553
0.5870967741935484, -1.1733333333333333
0.6903225806451614, -1.1066666666666667
0.7849462365591398, -1.0488888888888888
0.896774193548387, -1
1.0086021505376346, -0.951111111111111
1.1376344086021506, -0.9199999999999997
1.2838709677419353, -0.8844444444444444
1.3956989247311826, -0.871111111111111
1.4989247311827958, -0.8577777777777778
1.6193548387096777, -0.8444444444444443
1.7139784946236558, -0.8444444444444443
1.817204301075269, -0.8355555555555554
1.9118279569892471, -0.8355555555555554
1.9806451612903224, -0.8399999999999999
2.1268817204301076, -0.8533333333333333
2.264516129032258, -0.8666666666666665
2.350537634408602, -0.8799999999999999
2.5655913978494627, -0.9155555555555555
2.8236559139784947, -0.9555555555555555
3.073118279569893, -1
3.3053763440860213, -1.0533333333333332
3.529032258064516, -1.0977777777777777
3.701075268817204, -1.142222222222222
3.8387096774193554, -1.1733333333333333
3.9849462365591397, -1.208888888888889
4.148387096774194, -1.2577777777777777
4.320430107526882, -1.3066666666666666
4.466666666666667, -1.351111111111111
4.621505376344086, -1.3955555555555554
4.759139784946237, -1.4355555555555555
4.888172043010753, -1.4755555555555555
5.008602150537634, -1.511111111111111
5.120430107526882, -1.528888888888889
5.301075268817204, -1.5555555555555554
5.412903225806451, -1.5688888888888888
5.5677419354838715, -1.5911111111111111
5.72258064516129, -1.6088888888888888
5.877419354838709, -1.64
5.95483870967742, -1.6577777777777776
